<svg width="1728" height="1191" viewBox="0 0 1728 1191" fill="none" xmlns="http://www.w3.org/2000/svg">
    <g clip-path="url(#clip0_127_340)" filter="url(#filter0_d_127_340)">
        <path d="M585.069 967.81C577.388 963.834 569.841 959.501 561.98 955.927C546.168 948.824 532.378 939.041 519.62 927.337C508.884 917.42 495.767 910.764 482.291 904.912C461.089 895.709 441.279 884.273 424.838 867.7C416.707 859.48 406.286 854.834 395.864 850.501C352.561 832.454 311.144 809.939 266.448 795.108C263.034 793.991 259.665 792.249 256.745 790.104C237.519 776.122 217.664 763.882 193.138 761.112C188.466 760.576 183.839 757.047 179.841 754.054C172.744 748.738 165.062 744.092 156.528 742.529C109.631 733.862 69.6962 710.097 29.8068 686.063C21.9906 681.372 14.1745 676.771 6.26845 672.259C3.70798 670.83 1.64163 670.339 1.23735 667.077C0.877983 664.263 0.698301 660.064 2.18068 658.366C3.88766 656.356 7.21177 660.332 9.27812 661.538C35.8261 676.682 60.1731 691.022 86.9457 705.808C107.025 716.932 128.138 725.732 150.957 729.842C154.865 730.557 159.402 730.869 162.412 733.058C190.937 753.429 228.984 753.116 256.251 776.837C269.772 788.63 288.774 790.864 304.99 798.19C339.444 813.781 374.167 828.835 408.711 844.336C417.381 848.223 425.601 852.913 432.384 859.793C447.747 875.294 466.299 886.149 486.064 894.905C504.617 903.125 520.968 914.07 536.061 927.65C554.433 944.179 577.837 952.8 599.758 963.298C608.203 967.363 617.232 959.099 629.855 958.697C618.041 953.158 608.877 949.673 600.567 944.804C570.425 927.069 541.047 907.905 510.411 891.108C486.289 877.93 463.424 863.679 443.031 845.096C415.944 820.392 380.995 810.743 347.575 798.413C322.689 789.256 296.41 782.51 273.411 769.957C250.861 757.673 227.457 747.487 204.997 735.604C186.445 725.777 168.117 717.825 147.813 713.045C115.201 705.451 88.5179 685.75 60.8469 668.418C42.699 657.026 29.2228 646.975 11.5241 634.824C9.4578 633.395 4.87591 631.295 3.21385 629.419C0.60846 626.381 -0.0204268 621.557 1.86623 619.01C4.69623 615.124 10.0418 620.752 12.198 622.137C45.7985 643.178 73.3797 665.067 107.968 684.634C126.566 695.176 146.286 702.056 166.949 706.702C170.498 707.506 174.675 707.327 177.461 709.159C204.682 727.117 238.193 732.656 264.112 753.071C270.176 757.851 277.229 760.889 284.416 763.569C317.163 775.631 349.731 788.184 382.702 799.575C410.688 809.269 436.472 822.76 457.809 842.996C473.711 858.14 492.443 868.013 511.04 878.823C540.957 896.201 569.931 915.231 599.758 932.742C612.606 940.292 626.396 946.457 640.232 951.951C650.968 956.195 660.356 949.316 672.889 945.34C653.169 938.461 635.245 934.351 620.467 923.138C606.811 912.819 592.032 904.242 576.804 896.379C565.169 890.349 553.266 884.899 540.823 880.565C528.02 876.054 515.847 869.889 505.829 860.642C451.745 810.52 388.542 777.552 318.197 755.126C282.17 743.645 246.234 729.529 214.026 708.265C200.595 699.375 184.962 695.266 169.779 690.307C115.201 672.393 68.708 640.989 24.7757 605.117C18.5767 600.069 13.6803 596.942 7.34654 592.073C5.37003 590.554 1.82131 588.901 1.14751 586.802C0.294017 584.255 0.249096 579.118 1.73147 577.421C3.61813 575.276 9.54764 581.218 11.3894 582.602C28.0998 594.843 40.4979 604.179 58.6008 617.67C53.435 599.801 44.0915 586.176 32.6368 573.847C24.2366 564.778 19.2954 557.452 9.36796 549.858C7.12193 548.116 3.12401 545.033 1.73147 542.532C0.0694141 539.628 0.159255 535.116 2.2256 533.15C4.96575 530.559 8.64923 536.188 10.5808 538.198C40.5877 562.5 62.0597 591.09 77.3776 627.989C78.3659 630.402 79.1744 632.323 81.3755 633.975C100.197 647.958 120.906 658.5 142.557 667.301C143.411 667.658 144.579 667.167 146.465 666.988C138.335 653.586 128.003 643.044 116.189 634.02C101.545 622.852 88.4281 610.433 78.86 594.619C60.3078 563.93 35.1074 539.405 6.76257 517.962C1.82131 514.209 1.01274 508.223 0.967824 504.739C0.698301 490.935 0.56354 476.596 0.967824 462.792C1.14751 457.208 0.473699 453.277 8.11019 457.163C22.3949 464.445 36.9492 471.146 51.3237 478.159C67.0459 485.843 76.2546 499.78 86.6762 513.003C122.523 558.569 160.615 603.018 211.959 631.206C250.501 652.38 284.821 679.273 322.194 701.832C340.477 712.866 354.537 728.77 365.228 747.443C374.796 764.15 374.976 764.105 396.403 771.923C393.348 766.115 391.147 761.916 388.946 757.717C371.382 724.124 347.17 696.918 313.974 677.486C283.473 659.617 252.343 642.954 222.112 624.594C171.037 593.502 128.407 553.7 96.5587 503.667C75.2214 470.163 45.0348 452.517 8.02034 443.359C3.7529 442.287 -0.604393 442.243 1.10259 435.855C2.71972 429.734 6.80749 432.504 10.1765 433.353C49.2125 443.181 82.2739 460.782 104.689 496.475C146.915 563.93 209.713 608.244 278.846 645.054C309.392 661.315 340.567 677.129 364.24 703.262C383.376 724.392 399.323 747.711 408.532 775.05C411.631 784.252 421.603 783.895 428.97 790.104C427.263 762.14 414.506 741.412 398.694 722.024C381.175 700.537 357.008 685.393 340.792 662.7C327.226 643.669 308 633.305 285.944 627.453C273.86 624.237 263.214 619.055 252.927 611.505C228.67 593.636 202.257 578.984 178.584 559.954C154.641 540.7 134.157 519.257 119.513 492.365C96.6485 450.373 56.0853 435.721 13.5006 424.061C10.6707 423.302 9.54764 422.676 6.67273 422.23C1.59671 421.426 0.249096 417.852 1.19243 414.055C2.36036 409.587 5.63956 411.91 8.28987 412.536C31.4689 417.896 53.0756 425.267 74.8171 434.782C98.5352 445.146 115.246 463.998 127.599 485.53C155.539 534.133 198.977 564.912 245.83 592.386C249.872 594.753 253.87 597.523 257.284 600.695C265.999 608.914 276.331 613.694 287.875 616.643C312.536 622.986 333.964 634.511 349.147 655.686C365.633 678.692 390.204 693.881 407.858 715.815C424.119 736.006 436.742 757.717 439.662 783.94C441.279 798.726 441.818 799.754 457.091 806.633C454.8 796.001 451.88 786.307 450.712 776.39C445.456 732.209 419.717 700.716 389.081 670.785C356.604 639.113 318.286 617.179 277.903 598.372C250.546 585.64 229.928 564.332 205.805 547.58C186.265 534.044 172.744 515.148 160.436 495.134C146.78 472.888 133.933 449.167 108.148 438.222C76.2995 424.731 44.9899 409.543 11.03 401.546C3.21385 399.715 -0.739155 396.588 0.114335 387.609C1.14751 376.798 0.428778 365.809 0.338937 354.909C0.338937 351.156 -0.33487 347.404 5.32511 347.359C39.7791 347.136 76.2097 344.768 102.623 370.723C127.15 394.801 155.18 414.323 180.874 436.748C229.029 478.74 269.323 528.505 317.792 569.916C352.965 599.935 389.261 628.615 429.734 651.71C468.276 673.689 501.876 702.234 534.983 731.45C564.496 757.449 594.907 782.466 624.869 807.929C627.16 809.894 629.406 812.128 632.55 810.788C648.632 803.908 666.645 807.839 683.849 800.96C669.295 789.032 654.427 777.775 640.591 765.356C624.24 750.614 605.778 739.178 587.046 727.832C553.76 707.684 524.067 682.087 489.119 664.308C468.186 653.676 446.804 643.178 428.342 628.436C403.501 608.646 372.64 597.076 352.695 570.318C340.522 553.968 320.173 545.793 305.529 531.676C277.454 504.65 250.636 476.328 222.381 449.435C198.124 426.339 172.654 404.495 147.633 382.203C135.64 371.527 123.197 360.895 114.347 347.627C101.141 327.748 81.69 323.102 60.3977 322.7C42.9236 322.343 25.4046 323.594 7.97542 324.934C2.2256 325.38 0.294017 324.844 0.338937 318.68C0.653381 292.502 0.653381 266.369 0.428778 240.191C0.428778 234.875 2.58496 232.016 7.2567 230.497C31.4689 222.813 55.142 213.075 80.3873 209.501C93.0998 207.714 104.689 212.271 113.988 221.875C132.72 241.218 148.846 263.152 169.824 280.262C215.239 317.295 261.282 353.479 308.449 388.279C330.774 404.763 351.258 423.257 369.226 444.521C386.835 465.383 405.387 485.217 430.004 498.798C449.948 509.787 465.76 526.36 481.662 542.353C514.364 575.321 552.098 599.623 597.512 611.327C627.429 619.01 652.854 636.745 681.199 648.226C739.281 671.723 791.209 706.076 842.06 742.082C861.555 755.93 861.465 756.064 884.464 742.395C856.03 725.553 832.806 703.172 808.639 681.685C790.086 665.201 766.323 658.322 742.516 652.291C714.71 645.233 688.611 634.69 667.768 613.962C663.635 609.852 658.29 607.395 652.36 606.234C646.655 605.117 640.816 604.134 635.47 602.035C577.253 579.475 516.431 561.383 474.744 510.055C464.458 497.413 451.206 488.3 435.664 482.984C407.948 473.469 389.755 452.562 372.775 430.628C356.379 409.498 338.59 390.691 315.546 375.994C292.367 361.163 271.21 343.071 249.738 325.693C230.467 310.058 208.096 299.069 189.32 282.674C164.523 261.008 141.075 238.27 122.927 210.707C117.132 201.862 110.394 197.574 99.5683 198.11C68.7978 199.584 37.3534 195.295 8.42463 210.484C6.22352 211.645 1.91116 214.46 0.743222 208.831C-0.110268 204.587 1.10259 201.951 5.86416 199.718C23.3382 191.498 41.7556 187.344 60.8019 187.835C75.0417 188.192 89.1917 187.612 103.342 187.344C115.066 187.12 123.601 191.99 129.935 201.46C157.426 242.603 193.362 274.856 234.779 301.972C257.868 317.071 279.026 334.985 301.082 351.648C308.628 357.366 315.501 364.201 323.722 368.712C346.451 381.131 363.072 399.715 378.255 419.862C396.897 444.655 417.561 466.5 448.331 476.73C462.077 481.286 472.678 491.248 482.336 501.88C511.175 533.731 544.641 557.631 586.641 570.764C611.393 578.493 634.033 592.654 660.176 597.389C665.252 598.327 670.598 601.588 674.281 605.251C695.439 626.47 722.256 636.566 750.422 643.357C783.214 651.263 811.693 665.961 834.513 690.888C851.672 709.65 873.504 722.381 893.898 736.945C900.232 741.456 906.97 739.268 916.133 739.044C881.59 715.725 855.536 686.197 826.292 660.198C808.459 644.384 786.852 639.023 764.617 634.958C737.754 630.044 714.036 619.234 693.912 600.739C687.443 594.798 679.357 591.09 671.362 587.561C661.659 583.273 651.956 578.85 644.23 571.524C632.146 560.132 616.379 559.15 601.6 556.827C558.566 550.036 526.313 527.522 501.562 492.812C496.037 485.039 489.613 477.891 481.168 473.334C453.048 458.101 431.441 435.497 410.643 412C399.907 399.894 388.003 389.574 373.853 381.489C353.639 369.963 336.075 354.105 314.423 344.813C312.132 343.83 309.751 342.311 308.224 340.435C278.038 302.91 234.375 281.959 197.899 252.208C175.484 233.892 159.402 210.752 140.895 189.399C136.852 184.753 131.956 180.911 127.554 176.578C121.4 170.547 114.527 170.011 106.486 172.557C87.4847 178.543 67.9892 180.509 48.2691 176.98C34.7031 174.567 22.4847 180.554 9.63748 182.296C5.954 182.787 1.46195 185.155 0.743222 178.32C0.114335 172.423 4.02242 172.647 8.06527 171.53C25.7639 166.616 43.3728 165.008 61.88 167.375C75.8054 169.162 90.3596 167.375 103.791 161.97C114.796 157.503 124.05 160.004 133.304 166.839C143.456 174.299 152.485 183.234 158.953 193.464C178.718 224.868 208.006 245.775 236.89 267.351C253.241 279.502 269.009 292.412 286.707 302.732C290.436 304.921 294.568 307.378 296.949 310.817C318.241 341.418 354.223 352.228 382.433 373.448C394.696 382.695 407.184 391.272 417.381 402.842C438.134 426.384 459.606 449.078 487.727 464.355C501.607 471.905 510.501 484.905 519.395 497.145C542.35 528.639 575.142 541.727 611.707 547.535C628.462 550.171 643.241 555.397 655.999 566.61C659.997 570.139 665.163 572.551 670.149 574.74C683.939 580.771 696.966 587.874 708.196 598.014C726.479 614.454 749.029 622.093 772.612 625.309C806.078 629.866 831.323 647.556 853.874 670.607C869.416 686.51 884.914 702.592 902.702 715.904C929.654 736.096 934.461 743.913 968.645 736.498C918.02 714.385 878.894 677.397 838.96 641.525C835.501 638.398 831.728 634.958 827.415 633.439C803.518 624.996 780.473 613.382 755.048 610.254C739.012 608.289 727.422 599.98 716.327 589.839C708.735 582.915 700.47 576.884 691.172 572.596C667.184 561.562 645.802 546.463 624.554 531.14C622.802 529.889 621.365 528.639 618.805 528.683C587.675 529.13 560.902 519.57 542.35 493.348C528.38 473.603 506.997 463.685 487.771 450.686C463.559 434.291 441.503 415.439 423.67 391.897C414.326 379.568 400.626 371.75 387.554 364.111C373.583 355.936 363.387 341.686 345.957 339.05C341.555 338.38 338.366 334.36 336.749 330.25C333.2 321.271 326.642 315.106 318.691 310.46C303.777 301.749 290.615 290.938 278.397 278.832C276.106 276.554 273.366 274.41 270.446 273.114C230.961 255.201 204.772 222.277 177.64 190.739C167.578 179.035 153.293 173.451 142.557 163.31C125.308 146.96 108.508 140.527 84.9692 152.901C63.9913 163.98 40.2733 159.96 17.4986 155.403C13.9499 154.688 10.2664 154.867 6.62781 154.733C4.11226 154.644 1.37211 155.224 0.967824 151.427C0.653381 148.077 1.68655 145.843 5.10051 144.816C9.09844 143.654 12.9167 143.744 16.9146 144.86C45.4841 152.812 73.0203 149.908 99.3887 136.507C110.798 130.699 120.906 132.129 130.563 140.617C136.807 146.111 143.411 151.517 150.553 155.76C169.375 166.839 184.109 181.76 198.124 198.422C213.532 216.693 231.814 232.552 248.929 249.393C249.962 250.421 251.13 251.493 252.433 251.94C283.787 262.572 303.103 290.626 331.223 305.993C333.694 307.333 336.434 309.343 337.692 311.755C349.057 334.002 375.38 336.861 391.417 353.077C395.954 357.678 400.805 356.562 406.241 353.613C426.051 342.937 441.997 329.892 454.351 309.611C476.047 273.874 508.839 249.706 550.121 238.359C551.873 237.868 553.76 237.332 555.512 237.51C590.729 241.218 625.093 231.48 659.997 230.542C669.205 230.318 678.324 226.342 687.488 224.377C716.327 218.123 743.818 226.744 771.669 231.748C820.093 240.414 866.047 256.094 909.395 279.279C935.18 293.038 960.425 294.825 985.94 278.341C996.496 271.551 1008.8 271.819 1020.98 272.444C1094.96 276.152 1168.9 275.571 1242.93 271.729C1272.13 270.21 1300.52 265.341 1329.31 261.276C1386.09 253.235 1443.41 243.809 1501.27 254.531C1515.33 257.122 1527.14 263.465 1539 270.746C1587.87 300.766 1640.7 314.972 1698.42 309.299C1712.17 307.958 1725.96 305.769 1739.89 307.869C1744.42 308.539 1746.31 309.611 1745.91 315.151C1745.37 321.896 1742.4 318.769 1739.17 318.501C1725.65 317.339 1712.21 318.814 1698.78 320.199C1640.39 326.229 1586.08 312.649 1536.98 282.049C1515.78 268.826 1493.86 263.376 1470.09 261.767C1439.05 259.712 1408.15 262.169 1377.33 266.235C1317.5 274.142 1258.2 285.712 1197.2 283.969C1169.31 283.165 1141.05 289.911 1113.11 286.828C1079.55 283.076 1046.04 284.997 1012.58 283.344C1003.91 282.897 995.957 284.729 988.545 289.241C962.132 305.323 935.449 304.161 908.272 290.849C876.558 275.303 844.934 259.444 810.076 251.716C778.497 244.703 747.232 235.992 714.845 233.311C706.804 232.641 698.943 233.401 690.902 234.964C647.733 243.362 604.295 249.572 560.049 248.366C547.74 248.008 536.465 252.565 525.999 258.864C497.25 276.152 471.061 295.763 455.788 327.033C447.882 343.249 431.351 350.397 416.887 359.465C414.326 361.074 407.903 360.716 410.328 365.764C412.53 370.41 417.336 369.159 421.783 367.104C437.371 360.001 450.083 349.146 461.313 336.593C473.217 323.326 484.762 309.701 496.261 296.076C521.237 266.503 550.795 250.599 591.852 255.245C625.363 259.042 659.592 256.585 693.148 250.331C730.791 243.318 766.413 252.029 801.137 264.984C827.73 274.901 853.919 286.114 879.748 297.862C912.675 312.828 946.275 318.903 981.762 309.209C1021.52 298.309 1061.5 298.309 1101.97 304.742C1171.91 315.865 1240.77 306.171 1309.46 293.127C1341.22 287.096 1372.84 279.011 1405.81 282.897C1418.57 284.416 1431.1 280.932 1443.72 278.966C1473.51 274.32 1502.21 277.983 1527.68 295.048C1551.98 311.353 1579.38 320.02 1606.79 328.82C1623.77 334.27 1639.89 342.043 1658 344.143C1680.55 346.734 1702.33 342.267 1724.25 338.603C1725.69 338.38 1727.08 337.889 1728.52 337.621C1746.67 334.762 1745.28 334.538 1745.46 352.541C1745.77 385.42 1735.75 408.605 1714.1 430.36C1685.8 458.816 1650.36 476.238 1616.22 495.581C1582.89 514.433 1548.39 531.14 1513.71 547.446C1494.35 556.559 1477.19 568.531 1462.05 583.675C1440.98 604.76 1416.82 622.718 1398.89 646.975C1387.8 662.029 1378.86 678.156 1371.27 695.131C1370.37 697.186 1366.51 700.581 1371.27 701.832C1374.37 702.636 1378.81 704.513 1381.42 699.018C1409.41 640.453 1456.3 600.248 1510.3 566.476C1539.76 548.071 1571.7 534.491 1601.8 517.426C1627.81 502.684 1654.85 489.863 1680.01 473.603C1705.03 457.431 1725.96 436.971 1745.19 413.116C1745.91 424.106 1744.74 431.119 1738.22 438.446C1707.54 472.977 1667.97 494.598 1628.03 516.086C1576.06 544.006 1522.34 568.754 1474.41 603.911C1442.02 627.721 1418.3 658.679 1395.7 690.843C1393.28 694.283 1387.93 700.179 1393.91 703.485C1399.25 706.434 1405 703.843 1409.27 697.454C1451.63 633.707 1507.74 587.427 1581.36 562.723C1619.23 549.992 1651.17 526.852 1681.26 501.121C1701.21 484.056 1721.02 466.857 1738.4 447.112C1740.16 445.146 1741.59 440.858 1744.6 443.091C1746.13 444.208 1745.91 450.373 1745.91 453.277C1745.91 456.18 1743.39 456.627 1741.41 458.682C1705.16 496.296 1666.53 531.051 1620.71 557.139C1608.63 564.019 1595.92 569.514 1582.8 573.891C1514.88 596.764 1462.55 639.559 1422.16 697.722C1421.44 698.795 1420.91 700.001 1420.05 701.654C1429.93 700.537 1436.31 696.963 1442.42 688.877C1476.74 643.535 1520.27 607.976 1573.63 588.857C1631.85 567.995 1679.96 533.82 1724.34 492.767C1728.43 488.97 1732.88 480.839 1737.64 476.149C1739.93 473.871 1742.85 469.716 1744.02 472.664C1747.12 480.661 1745.86 484.234 1742.09 489.193C1709.7 531.498 1663.12 564.287 1611.64 585.104C1575.97 599.533 1540.8 613.784 1510.21 637.415C1489.45 653.497 1469.55 670.472 1453.43 691.647C1456.84 694.372 1459.63 692.183 1461.38 690.664C1502.35 654.301 1547.85 626.068 1600.09 607.932C1648.38 591.18 1687.06 558.301 1726.9 527.656C1732.83 523.099 1736.56 513.093 1741.86 515.505C1746.89 517.783 1745.68 529.755 1745.82 537.171C1745.82 561.16 1745.64 586.266 1745.82 609.986C1745.91 615.481 1745.14 615.213 1739.98 617.402C1718.37 626.515 1698.56 638.353 1680.41 653.408C1666.13 665.246 1649.15 673.019 1630.37 679.362C1641.64 683.829 1651.98 681.819 1662.08 682.4C1666.67 682.668 1668.37 679.139 1670.62 676.548C1691.1 652.738 1720.17 641.57 1745.59 624.55C1745.95 633.35 1745.14 636.745 1739.17 640.632C1723.31 650.906 1705.61 658.366 1691.42 671.143C1688.18 674.046 1685.08 676.995 1680.82 680.926C1689.66 683.829 1696.9 680.658 1703.9 679.675C1715 678.067 1725.92 674.94 1736.92 672.706C1740.47 671.991 1743.3 669.49 1744.78 675.61C1746.31 681.909 1743.97 683.829 1738.81 684.812C1703.23 691.513 1667.65 696.382 1631.27 692.004C1611.19 689.592 1591.29 691.066 1571.84 697.499C1557.37 702.279 1542.19 701.118 1527.28 700.448C1494.71 699.063 1462.5 699.688 1431.19 710.677C1407.74 718.942 1383.53 713.313 1359.59 712.286C1321.32 710.633 1284.44 698.393 1246.07 697.722C1197.92 696.874 1150.84 703.262 1105.79 720.952C1089.21 727.474 1071.78 729.306 1054.4 730.244C1033.78 731.361 1014.11 736.051 994.52 741.68C973.362 747.755 951.8 751.15 929.744 750.034C903.735 748.693 880.556 756.243 857.782 768.394C824.406 786.218 787.301 793.544 750.467 799.709C724.637 804.042 699.302 810.877 673.473 814.361C625.049 820.839 583.452 843.8 540.553 863.992C539.34 864.573 538.397 865.779 536.914 867.074C547.246 871.229 557.084 875.026 566.742 879.225C569.661 880.476 571.593 879.359 573.839 878.153C596.389 866.36 620.017 856.353 639.378 839.154C648.542 831.024 660.131 828.299 671.99 828.835C692.339 829.773 711.7 827.272 730.702 819.409C745.615 813.2 762.011 812.351 777.958 811.726C801.721 810.743 824.046 804.712 845.204 794.795C877.457 779.651 911.641 774.737 946.679 771.834C989.174 768.26 1030.95 760.219 1071.65 747.13C1090.02 741.233 1108.57 736.453 1128.25 736.498C1149.14 736.587 1169.26 730.959 1189.47 726.313C1224.56 718.272 1259.78 721.354 1294.99 725.017C1328.28 728.457 1361.25 734.845 1394.94 735.292C1413.31 735.515 1431.46 733.907 1449.29 730.244C1481.64 723.543 1513.76 724.794 1546.01 729.931C1554.86 731.361 1563.53 729.529 1571.93 727.295C1592.19 721.935 1612.85 721.309 1633.56 719.701C1667.52 717.066 1701.25 719.21 1735.03 722.113C1737.55 722.337 1738.04 722.426 1740.56 722.828C1744.33 723.409 1745.68 726.179 1745.59 729.395C1745.41 733.996 1741.55 733.505 1738.54 733.281C1728.34 732.477 1720.61 732.075 1710.42 731.093C1669.18 727.206 1628.03 728.636 1587.38 735.515C1566.31 739.089 1545.96 741.769 1524.72 737.793C1497.72 732.701 1470.9 736.766 1444.4 741.993C1406.49 749.453 1368.89 745.879 1331.29 740.429C1292.21 734.756 1252.99 730.378 1213.55 733.371C1195.94 734.711 1178.74 740.608 1161.22 743.869C1135.88 748.559 1109.61 745.968 1084.63 754.59C1042.18 769.287 998.203 777.686 953.597 782.331C923.186 785.503 892.55 786.486 863.936 799.128C841.97 808.867 819.779 818.114 795.702 821.241C779.845 823.296 763.628 822.492 747.996 826.512C741.303 828.21 734.385 829.371 728.051 831.962C712.599 838.35 696.652 841.209 680.031 839.646C663.86 838.127 650.024 842.415 637.851 853.539C624.24 865.958 606.901 872.524 590.864 881.102C588.034 882.62 585.249 884.139 581.565 886.149C587.136 889.321 591.987 891.689 596.344 894.682C601.016 897.943 604.52 896.96 609.057 894.056C626.441 882.844 642.747 869.308 663.59 864.93C673.832 862.786 684.748 863.992 695.08 862.25C725.131 857.291 753.925 846.347 784.786 844.783C825.888 842.684 863.082 823.609 903.376 817.042C975.878 805.204 1047.12 786.665 1120.3 778.4C1144.55 775.675 1167.82 768.081 1191.23 761.336C1235.38 748.693 1279.94 751.329 1324.46 759.191C1372.03 767.59 1419.69 769.109 1467.98 766.026C1519.64 762.72 1571.21 760.085 1622.28 751.195C1636.57 748.693 1650.49 753.339 1664.6 754.724C1689.98 757.181 1715.13 760.576 1739.26 769.689C1745.14 771.923 1746.76 774.38 1745.23 780.277C1742.85 786.352 1739.17 781.438 1736.47 780.366C1704.22 767.232 1669.59 766.83 1635.85 762.006C1619.5 759.638 1603.37 765.043 1587.2 767.59C1561.28 771.7 1535.18 774.201 1508.86 774.514C1471.67 775.005 1434.65 780.545 1397.37 778.624C1366.01 777.016 1335.02 772.459 1304.16 767.277C1264.99 760.71 1226.22 761.782 1188.53 773.71C1146.93 786.888 1103.86 791.534 1061.14 797.967C1024.75 803.417 989.309 813.379 953.013 818.963C902.927 826.602 855.042 845.006 805.404 852.243C759.451 858.944 714.89 873.597 667.948 875.071C647.643 875.696 632.011 891.599 615.166 902.276C614.537 902.678 614.043 904.063 614.268 904.822C615.301 908.888 636.279 919.788 639.648 917.867C673.024 898.836 709.724 889.455 747.142 883.469C827.91 870.559 907.958 853.583 988.635 840.584C1049.73 830.756 1109.2 813.825 1170.2 803.685C1225.5 794.527 1280.17 788.184 1336.41 794.884C1368.08 798.637 1400.11 802.3 1432.4 800.647C1464.12 798.994 1495.74 802.97 1527.28 806.32C1555.94 809.358 1584.1 804.087 1612.04 799.307C1654.94 791.981 1696.81 792.293 1737.59 809.269C1744.11 811.994 1746.22 814.629 1745.95 822.358C1745.28 839.065 1745.41 856.308 1745.95 873.016C1745.95 880.074 1744.69 882.486 1738.04 883.022C1697.53 886.105 1657.73 885.569 1622.51 860.954C1611.95 853.583 1599.24 851.573 1587.07 851.395C1535.81 850.635 1487.25 836.787 1438.51 823.251C1420.28 818.203 1400.96 819.409 1382.45 814.763C1375.67 813.066 1368.84 819.365 1362.69 822.849C1325.81 843.666 1285.11 848.714 1244.05 852.69C1207.44 856.219 1170.83 859.659 1134.36 864.037C1122.14 865.511 1110.28 870.157 1099.27 875.83C1058.67 896.647 1016.08 912.372 972.823 926.712C944.164 936.227 916.493 948.78 890.663 964.772C887.609 966.649 884.15 968.302 883.566 972.233C883.476 972.813 886.396 973.93 888.013 974.6C891.786 976.164 894.661 976.878 898.435 972.947C908.497 962.449 921.793 956.999 935.494 952.845C960.2 945.34 984.907 937.924 1009.75 930.866C1031.58 924.657 1052.42 916.705 1071.51 904.018C1107.63 879.985 1147.79 868.727 1191.14 867.879C1232.51 867.075 1272.8 859.168 1312.87 849.786C1325.54 846.793 1338.84 846.927 1351.32 842.415C1358.02 840.003 1364.57 837.368 1368.44 831.381C1374.32 822.134 1380.3 821.822 1391.75 823.385C1436.63 829.416 1477.86 849.786 1523.05 854.254C1561.33 858.006 1597.35 870.112 1632.44 886.149C1667.02 901.963 1695.59 901.874 1732.47 894.682C1734.41 894.324 1744.47 889.098 1745.37 893.699C1745.91 896.603 1746.44 900.221 1743.75 902.857C1741.91 904.644 1738.9 904.51 1736.38 904.912C1697.97 911.121 1659.39 911.97 1623.95 894.28C1578.31 871.497 1528.44 867.298 1479.84 857.068C1464.93 853.941 1449.92 850.322 1435.82 844.738C1419.29 838.216 1402.22 836.027 1385.01 833.481C1382.54 833.124 1380.79 833.57 1379.35 835.581C1367.9 851.663 1350.47 855.549 1332.5 857.827C1309.73 860.731 1287.63 866.628 1265.3 871.586C1241.04 876.947 1216.07 877.483 1191.41 878.6C1153.54 880.297 1117.2 887.624 1085.62 908.843C1053.1 930.688 1016.31 940.247 979.561 950.879C956.562 957.536 932.799 962.583 912.135 975.717C910.653 976.655 909.261 977.817 907.015 979.514C910.878 981.926 914.292 982.284 917.661 981.122C959.347 966.917 1003.19 960.439 1044.74 945.831C1061.32 939.979 1077.08 932.474 1091.23 921.977C1121.38 899.685 1156.1 891.421 1192.75 889.857C1230.67 888.249 1268.76 891.421 1306.45 885.345C1334.34 880.878 1361.57 874.49 1383.22 854.388C1389.87 848.223 1398.58 848.491 1406.08 850.993C1453.16 866.762 1502.03 874.222 1550.59 883.29C1567.12 886.373 1582.75 892.493 1597.94 899.596C1642.36 920.368 1688.63 925.104 1736.56 915.231C1740.07 914.516 1743.88 909.424 1745.55 917.241C1747.07 924.433 1742.54 925.059 1738.18 925.908C1687.69 936.048 1638.86 931.313 1592.14 909.022C1567.53 897.273 1541.25 891.957 1514.52 887.668C1478.22 881.906 1442.29 874.445 1407.43 862.607C1399.12 859.793 1392.74 860.15 1385.55 866.315C1358.47 889.545 1324.64 894.592 1290.82 898.211C1259.55 901.561 1228.06 900.043 1196.66 900.623C1159.02 901.293 1124.03 910.54 1093.34 933.591C1074.75 947.618 1052.92 955.213 1030.68 961.243C1000.18 969.508 969.499 977.102 938.818 986.036C957.101 988.002 974.126 998.276 993.981 989.923C1026.77 976.119 1062.62 969.24 1092.04 947.797C1109.25 935.244 1126.5 922.781 1148.28 920.413C1175.1 917.465 1202.05 915.946 1228.91 913.578C1271.99 909.826 1315.75 912.193 1357.7 898.702C1367.94 895.397 1376.97 890.125 1385.91 884.497C1394.63 879.002 1404.24 876.054 1414.08 879.493C1454.42 893.565 1496.6 899.774 1538.01 909.245C1562 914.695 1582.93 928.052 1606.52 934.753C1649.42 946.948 1692.72 948.601 1736.43 940.962C1744.56 939.533 1745.86 939.845 1745.86 948.958C1745.23 964.906 1745.32 981.346 1745.86 997.294C1745.86 1004.53 1744.87 1006.14 1737.95 1006.45C1674.66 1009.67 1613.08 1002.25 1552.12 983.669C1502.03 968.391 1450.78 956.419 1397.55 957.267C1378.77 957.58 1362.1 965.174 1344.5 969.463C1315.97 976.432 1286.59 975.583 1257.66 979.023C1209.42 984.785 1160.01 985.545 1114.73 1006.72C1112.89 1007.57 1111.13 1008.64 1106.42 1011.14C1130.72 1013.69 1151.92 1015.74 1173.21 1014.63C1235.56 1011.37 1297.06 1003.28 1357.52 986.617C1408.1 972.724 1458.73 972.724 1508.99 992.067C1547.94 1007.08 1589.99 1009.8 1630.68 1017.84C1637.83 1019.27 1645.51 1019.5 1652.02 1022.31C1679.6 1034.15 1708.53 1029.14 1736.97 1030.04C1739.48 1030.13 1739.57 1029.99 1742.04 1030.57C1744.83 1031.24 1745.55 1034.19 1745.46 1036.38C1745.37 1039.11 1744.06 1040.18 1741.46 1039.87C1707.99 1035.94 1678.07 1048.18 1645.78 1052.69C1605.71 1058.27 1565.46 1054.92 1525.66 1049.38C1482.27 1043.35 1438.96 1043.13 1395.61 1046.92C1351.86 1050.77 1308.83 1049.43 1266.87 1035.22C1230.44 1022.89 1192.71 1026.15 1155.16 1024.77C1081.44 1022.04 1008.53 1011.72 936.123 997.517C887.294 987.957 840.892 970.044 792.692 958.518C764.931 951.862 736.631 949.495 708.196 948.422C702.491 948.199 696.337 948.958 690.992 950.879C638.525 969.642 582.778 977.683 531.299 999.706C525.415 1002.21 520.608 1005.83 515.937 1009.89C503.044 1021.06 488.266 1027.94 471.914 1033.61C401.12 1058.09 327.181 1067.38 254.005 1080.65C240.574 1083.11 228.086 1087.98 216.901 1095.93C204.323 1104.82 190.892 1112.32 175.933 1116.17C141.794 1124.97 111.652 1143.55 78.7252 1155.21C66.2822 1159.63 56.7591 1169.33 46.068 1176.88C38.162 1182.46 15.1627 1191.44 6.53797 1190.95C6.76257 1186.48 25.2698 1177.41 26.9768 1175.8C30.4806 1172.5 38.4765 1171.96 37.4882 1166.65C36.6796 1162.22 29.3576 1161.46 24.596 1159.99C17.6333 1157.85 13.7252 1156.28 6.58289 1155.08C2.18068 1154.32 0.114335 1152.04 0.383858 1148.2C0.788142 1142.97 5.41496 1144.62 8.87383 1145.25C22.5746 1147.66 32.2774 1150.83 44.4958 1157.71C48.359 1159.9 63.1827 1153.87 64.171 1149.8C64.7999 1147.26 62.5538 1146.86 61.1613 1146.14C42.9236 1136.45 29.5373 1124.79 8.20003 1122.2C3.39353 1121.62 -0.245029 1118.49 0.383858 1114.25C1.19243 1109.15 7.79574 1111.43 10.7156 1111.97C29.7619 1115.27 42.8337 1122.51 58.3762 1133.36C72.7957 1143.46 86.1371 1143.59 101.725 1133.19C74.4578 1127.24 59.3196 1104.19 36.6347 1092.45C26.887 1087.4 19.6098 1082.71 8.82891 1080.21C3.61813 1079 0.204176 1076.72 0.338937 1070.56C0.877983 1049.11 0.60846 1027.13 0.338937 1005.69C0.249096 998.634 11.7487 1000.2 17.813 1001.18C62.0148 1008.28 89.8655 1025.62 122.253 1056.31C143.68 1076.63 170.678 1085.52 198.483 1092.27C206.165 1094.14 210.342 1085.03 217.53 1082.26C186.849 1074.44 166.141 1052.42 143.501 1033.57C105.318 1001.76 67.9443 987.689 19.6548 980.006C17.4986 979.648 7.75082 977.861 5.59464 977.683C0.653381 977.236 0.0694142 974.779 0.877983 969.776C1.77639 964.147 6.80749 967.095 9.41288 967.408C68.7529 974.958 119.648 995.462 163.895 1036.87C180.695 1052.64 198.843 1066.27 221.977 1072.48C233.162 1075.47 242.326 1071.58 255.532 1069.17C212.184 1052.51 179.347 1025.71 146.465 998.723C111.966 970.401 69.1122 962.852 27.426 952.756C20.4184 951.058 16.0162 951.058 8.78399 950.656C4.33686 950.388 0.159255 948.958 0.294017 944.134C0.428778 938.997 5.41496 939.577 8.64923 939.935C18.8013 940.962 26.3479 941.409 36.3652 943.196C95.9747 954.006 147.409 979.961 192.239 1021.1C214.7 1041.7 242.73 1055.46 272.602 1064.26C280.104 1066.49 286.617 1063.94 295.287 1062.92C271.255 1047.68 248.704 1033.3 226.064 1019.05C200.774 1003.15 175.664 987.019 152.575 967.989C124.679 944.983 90.9436 936.093 56.4896 928.677C39.0604 924.925 23.6976 920.145 6.31337 916.258C1.23735 915.142 0.249096 912.64 0.743222 908.754C1.32719 904.063 8.78399 906.386 11.4792 907.056C44.2712 915.097 71.8524 921.217 104.42 930.151C128.317 936.674 148.307 950.611 167.578 966.023C195.204 988.091 225.75 1006 255.622 1024.81C272.557 1035.49 289.852 1045.63 307.011 1055.99C310.83 1058.32 314.603 1059.83 319.364 1058.76C333.469 1055.64 347.664 1052.87 365.498 1049.16C355.66 1046.66 349.326 1044.78 342.858 1043.35C299.644 1033.84 263.888 1010.92 230.018 983.535C205.446 963.656 178.808 946.367 153.159 927.829C137.886 916.795 121.49 908.977 102.488 906.252C78.3659 902.812 55.5013 893.208 31.1544 890.795C23.9222 890.081 16.6002 889.634 9.32304 889.366C2.49512 889.098 0.967824 886.864 0.788142 878.823C0.338937 858.855 0.56354 838.886 0.338937 818.918C0.249096 812.843 0.383858 811.279 7.34654 812.038C34.5684 815.076 60.8469 822.894 87.7992 826.646C111.966 830.041 134.022 837.502 155.494 848.848C170.453 856.755 186.939 862.116 203.11 867.521C223.19 874.222 240.484 885.033 256.655 898.345C294.029 929.079 336.659 951.549 378.704 974.913C407.723 991.084 437.64 1005.38 468.635 1017.53C477.709 1021.1 484.402 1017.66 491.14 1013.82C497.519 1010.16 491.275 1008.06 488.85 1006.72C475.418 999.349 461.987 991.978 448.196 985.232C409.116 966.023 375.695 937.612 336.883 917.956C298.881 898.747 262.001 876.813 223.549 859.257C187.253 842.683 148.846 829.818 111.966 813.825C109.002 812.53 105.722 811.815 102.488 811.324C71.1786 806.454 43.1482 798.19 12.6022 790.015C10.8503 789.524 8.60431 788.273 6.80749 788.049C1.23735 787.335 0.0694142 783.225 1.14751 779.026C2.4502 773.978 5.01067 776.613 7.79574 777.328C29.9416 783.002 51.8178 790.283 74.2781 794.348C106.801 800.29 137.841 809.313 166.275 826.557C173.687 831.069 182.222 833.302 190.757 835.491C203.739 838.842 217.395 840.807 228.85 848.178C267.885 873.284 311.503 889.902 351.078 913.623C401.03 943.598 449.993 975.226 501.203 1003.06C509.962 1007.84 512.747 996.892 517.823 993.318C522.675 989.923 515.398 988.404 513.062 987.153C472.768 965.04 433.597 941.007 395.325 915.633C377.177 903.616 356.064 898.434 336.344 889.947C302.16 875.205 268.919 858.631 239.451 835.581C227.861 826.512 214.924 821.509 200.505 820.124C193.901 819.499 187.433 818.516 181.548 815.568C141.389 795.554 96.2442 789.613 55.3666 771.342C39.869 764.418 23.1136 760.219 6.71765 755.394C1.01275 753.741 -0.334871 750.972 1.32719 745.522C3.34861 738.91 9.09844 744.673 11.9733 745.522C42.0252 754.143 69.0224 763.078 97.5918 775.899C107.609 780.411 118.345 782.644 129.081 784.565C138.11 786.173 146.915 788.452 155.09 792.338C174.541 801.585 194.126 809.671 216.002 811.815C225.66 812.753 234.599 818.114 242.46 824.145C279.161 852.333 319.679 873.418 363.431 888.249C386.61 896.111 406.465 909.647 426.365 922.915C460.055 945.385 495.318 965.264 530.491 985.188C539.205 990.101 545.539 982.597 552.547 979.916C555.197 978.889 551.424 976.655 549.807 975.762C524.741 962.047 503.763 942.034 475.733 932.385C451.61 924.076 430.812 908.53 412.17 890.751C404.399 883.335 395.325 878.153 385.128 874.758C345.643 861.58 308.269 843.488 270.76 825.753C260.563 820.928 250.456 815.344 242.416 807.393C231.59 796.627 218.383 792.74 203.829 792.025C189.05 791.266 176.203 785.503 164.838 776.747C158.01 771.521 151.092 767.545 142.333 766.786C117.537 764.507 95.6153 753.607 73.3348 743.869C51.0542 734.086 28.9533 723.856 6.58289 714.296C0.877983 711.884 -0.918837 708.533 1.50687 703.128C4.06734 697.454 9.2332 703.709 12.2878 704.781C48.2242 717.78 78.5905 736.185 114.617 749.006C125.308 752.803 136.089 755.93 147.454 756.6C155.045 757.047 161.693 760.04 167.264 764.865C180.515 776.256 196.013 781.527 213.262 782.421C225.391 783.046 235.812 787.424 244.931 795.376C271.21 818.427 304.496 828.612 335.266 843.354C348.698 849.786 362.623 855.37 376.728 860.016C396.852 866.628 413.697 877.349 429.599 891.51C448.915 908.709 471.78 921.396 496.261 930.509C509.827 935.557 522.001 942.124 532.198 952.577C541.811 962.36 554.972 966.872 566.832 973.171C572.536 976.208 578.062 968.838 584.665 967.81H585.069ZM1008.67 399.313C1014.91 398.821 1020.93 400.385 1024.26 405.522C1033.51 419.817 1048.38 426.116 1062.48 433.621C1068.23 436.703 1074.25 439.741 1079.15 443.94C1101.25 462.971 1122.27 483.073 1140.6 505.811C1144.02 510.01 1147.52 514.612 1152.01 517.381C1184.26 537.216 1216.79 556.469 1252.36 570.228C1285.34 582.96 1312.6 602.66 1326.21 637.102C1327.2 639.604 1327.52 647.69 1333.09 642.552C1337.49 638.487 1348.31 635.539 1342.7 626.381C1331.06 607.351 1317.18 590.241 1297.46 578.448C1262.2 557.363 1226.98 536.233 1192.04 514.567C1167.91 499.602 1142.89 485.485 1124.92 462.747C1104.8 437.284 1082.2 415.261 1051.21 403.021C1042.81 399.715 1034.05 395.516 1027.72 389.396C1018.01 380.059 1009.07 381.712 999.057 387.162C968.286 403.78 937.74 420.8 905.981 435.542C883.252 446.085 862.049 459.397 845.833 478.338C828.808 498.262 807.965 512.065 785.235 523.993C761.337 536.501 737.619 549.277 716.147 565.716C714.261 567.146 709.769 568.352 712.06 571.97C714.485 575.768 717.225 572.239 719.427 570.898C741.842 557.184 765.74 546.463 789.368 535.071C814.568 522.876 838.286 507.821 857.602 486.825C870 473.335 884.599 462.3 900.995 454.036C932.844 437.999 964.558 421.604 995.283 403.557C999.416 401.144 1003.86 399.492 1008.71 399.402L1008.67 399.313ZM1016.17 371.482C1020.53 371.884 1024.93 372.197 1028.3 375.592C1038.86 386.135 1052.38 391.853 1065.63 397.839C1079.02 403.914 1090.6 412.178 1101.83 421.783C1119.22 436.614 1130.54 456.895 1148.15 470.967C1184.62 500.093 1225.14 523.501 1265.44 546.775C1296.97 565.002 1328.23 582.245 1347.95 614.32C1349.71 617.179 1351.01 625.041 1358.02 618.876C1362.96 614.543 1366.01 611.148 1359.09 605.519C1351.5 599.31 1345.12 591.671 1337.8 585.193C1313.01 563.304 1283.45 548.696 1255.24 531.989C1226.35 514.88 1198.05 497.189 1176.94 470.073C1166.92 457.208 1155.38 445.459 1142.8 434.827C1118.01 413.831 1088 400.43 1062.89 379.791C1050.31 369.427 1036.25 360.761 1021.02 354.239C1016.17 352.184 1012.58 351.782 1008 355.043C991.241 366.836 972.239 374.475 953.732 383.052C913.618 401.636 874.627 421.917 842.104 452.696C822.474 471.28 800.553 487.406 776.835 500.048C747.996 515.46 722.616 535.384 696.292 554.146C694.316 555.576 689.465 557.184 691.711 559.775C693.912 562.321 697.82 566.699 702.851 562.768C704.288 561.651 705.905 560.847 707.343 559.73C731.825 540.521 759.181 526.092 786.493 511.44C802.574 502.818 818.521 493.616 830.29 479.321C847.001 458.995 867.215 443.091 890.574 431.432C926.106 413.697 961.503 395.65 996.182 376.351C1002.43 372.867 1009.3 372.108 1016.26 371.616L1016.17 371.482ZM1105.61 395.828C1119.17 403.601 1131.66 412.178 1143.75 421.336C1146.4 423.346 1149.09 423.034 1152.01 422.81C1185.43 420.085 1219.03 419.773 1252.32 415.127C1299.89 408.471 1348.31 407.801 1395.08 394.667C1408.33 390.959 1422.25 391.272 1436.31 393.416C1460.26 397.035 1482.99 405.031 1506.25 411.062C1535.86 418.701 1566.04 424.91 1593.4 439.25C1599.02 442.198 1603.28 442.6 1608.49 439.607C1614.11 436.391 1625.7 435.095 1625.02 431.343C1623.86 424.821 1614.2 423.302 1607.46 421.202C1569.23 409.23 1531.14 396.498 1492.55 385.777C1457.52 376.039 1422.57 367.462 1385.01 376.262C1328.1 389.574 1269.25 389.976 1211.58 398.687C1176.22 404.048 1141.05 398.821 1105.61 395.784V395.828ZM739.012 594.262C747.412 597.434 753.88 600.829 761.292 597.88C787.032 587.606 812.232 576.304 835.456 560.981C862.498 543.112 890.484 526.762 919.098 511.44C943.939 498.128 964.737 479.142 987.063 462.345C995.238 456.18 1000.13 451.713 1008.27 461.496C1011.59 465.472 1017.11 467.795 1021.88 470.431C1044.92 483.118 1068.41 495.447 1084.68 516.845C1096.67 532.614 1112.21 544.497 1126.05 558.211C1151.74 583.63 1181.52 600.829 1214 615.794C1246.48 630.714 1274.73 652.157 1288.08 687.582C1289.15 690.441 1290.37 692.228 1293.51 690.486C1303.89 684.812 1307.75 666.452 1299.48 658.232C1279.85 638.621 1258.97 620.529 1233.45 608.557C1217.28 600.963 1200.97 593.726 1184.98 585.774C1166.7 576.706 1148.42 567.593 1136.06 550.215C1126.27 536.456 1113.38 525.69 1099.81 515.728C1092.45 510.278 1085.8 503.98 1081.67 495.626C1078.07 488.3 1072.1 484.279 1065 480.75C1047.03 471.905 1027.99 464.132 1014.42 448.944C1006.33 439.875 999.506 439.473 990.432 445.548C988.006 447.157 985.446 448.541 982.93 450.016C918.829 488.121 860.073 534.58 793.725 569.29C776.386 578.359 758.238 585.506 739.012 594.262ZM777.149 602.258C787.212 608.78 795.432 609.54 806.213 605.519C835.456 594.664 862.139 579.609 888.417 563.259C919.952 543.648 951.306 523.903 980.01 500.316C997.664 485.843 997.035 486.915 1017.16 498.396C1045.73 514.746 1068.73 536.411 1090.47 560.892C1116.75 590.42 1147.52 614.945 1185.16 630.625C1211.04 641.391 1235.79 655.597 1248.19 683.293C1249.44 686.063 1251.51 687.314 1254.21 686.823C1261.57 685.527 1272.58 692.541 1275.09 687.001C1277.88 680.926 1269.16 673.287 1264 667.167C1243.47 642.91 1217.01 627.498 1187.99 615.436C1145.45 597.791 1115.18 564.51 1083.87 532.882C1076.99 525.958 1070.84 518.275 1063.92 511.261C1045.68 492.678 1020.17 485.307 1000.09 469.582C996.227 466.589 995.238 471.012 993.172 472.352C967.208 489.684 944.568 511.842 916.178 525.69C868.787 548.83 827.91 583.407 777.104 602.258H777.149ZM1666.4 1037.41C1653.5 1032.32 1641.73 1030.8 1630.19 1028.61C1588.73 1020.7 1546.01 1017.57 1506.34 1002.65C1464.66 986.974 1422.88 984.428 1379.58 992.558C1350.2 998.053 1322.35 1009.85 1292.39 1012.57C1277.74 1013.91 1263.19 1015.83 1248.59 1017.49C1255.06 1020.88 1261.53 1021.86 1267.5 1024.14C1299.89 1036.47 1331.78 1036.02 1364.22 1023.34C1382.45 1016.23 1401.19 1009.8 1420.73 1006.85C1467.26 999.795 1508.55 1014.05 1547.13 1038.44C1550.01 1040.27 1552.66 1041.47 1556.03 1041.79C1579.29 1043.98 1602.65 1044.65 1626.01 1043.8C1638.99 1043.35 1652.02 1042.68 1666.4 1037.41ZM1188.53 448.005C1197.96 447.201 1207.4 446.487 1216.83 445.638C1252.36 442.287 1288.08 440.679 1323.38 435.095C1353.25 430.36 1383.08 424.955 1413.13 422.096C1464.21 417.271 1509.76 436.703 1554.45 457.833C1560.52 460.692 1565.37 462.435 1571.57 458.727C1576.82 455.6 1587.16 453.857 1586.8 450.06C1586.26 443.94 1576.87 443.27 1570.98 441.26C1530.65 427.322 1489.05 417.807 1447.9 406.684C1430.83 402.082 1413.27 400.787 1395.97 405.522C1360.98 415.171 1325 417.941 1289.11 421.917C1248.14 426.473 1207.08 429.556 1165.98 432.504C1164 432.638 1161.17 431.209 1160.19 433.755C1159.24 436.212 1162.3 437.15 1163.42 438.848C1169.53 448.095 1178.65 449.033 1188.53 447.961V448.005ZM907.464 392.121C871.213 382.025 835.456 374.699 802.664 358.214C793.276 353.479 782.54 351.916 772.073 350.263C711.251 340.658 649.979 341.998 588.798 342.669C573.255 342.847 558.297 347.002 545.988 358.929C523.034 381.221 498.732 402.127 470.387 417.673C468.905 418.477 466.434 419.326 468.321 421.47C470.163 423.57 472.633 426.027 475.104 426.384C477.664 426.786 480.629 425.089 483.279 423.927C508.3 413.161 531.344 399.76 549.582 378.898C559.24 367.864 571.144 358.751 586.102 356.294C605.508 353.122 625.138 351.38 644.903 353.569C670.957 356.428 697.056 359.465 723.2 361.297C775.712 364.96 826.292 376.798 874.492 397.571C887.025 402.976 896.413 402.663 907.509 392.121H907.464ZM877.637 409.989C850.37 399.626 824.765 390.244 798.262 383.544C768.075 375.905 737.125 373.314 706.265 370.678C675.09 367.998 644.05 361.878 612.516 364.067C596.165 365.228 579.454 365.675 566.382 377.826C557.308 386.269 548.818 395.292 539.475 403.333C525.235 415.573 508.435 423.659 491.41 431.209C485.615 433.8 485.031 435.453 490.422 439.518C497.205 444.655 503.269 446.129 511.22 441.707C529.458 431.566 546.707 420.398 560.453 404.316C575.636 386.537 595.221 377.736 618.76 376.351C640.187 375.101 660.76 380.283 681.693 383.008C739.865 390.602 798.217 397.437 853.739 417.807C863.531 421.426 869.686 417.048 877.637 409.945V409.989ZM1008.53 593.502C1013.48 593.502 1016.53 596.629 1019.23 600.159C1023.63 606.011 1028.34 611.55 1034.36 615.794C1062.35 635.45 1083.28 663.682 1113.65 680.479C1116.75 682.177 1119.8 684.902 1121.55 687.895C1129.28 701.028 1140.06 699.688 1152.37 695.891C1159.15 693.791 1157.67 691.781 1154.26 688.029C1146.76 679.809 1137.37 674.225 1127.8 668.954C1105.74 656.714 1085.3 642.731 1067.65 624.237C1050.36 606.145 1030.68 590.331 1012.17 573.355C1007.91 569.469 1005.26 568.352 1001.17 574.115C986.389 594.798 966.04 608.289 942.502 617.67C918.559 627.185 894.347 635.986 869.775 643.848C867.529 644.563 864.34 645.992 863.846 647.734C862.903 650.951 866.901 652.112 868.787 654.167C871.482 657.116 874.312 656.088 877.681 654.971C886.621 651.934 895.605 649.298 905.038 647.824C941.963 642.061 974.845 628.213 999.775 599.22C1002.16 596.451 1004.22 593.324 1008.53 593.502ZM1352.09 700.179C1357.97 702.547 1359.32 697.052 1361.25 692.853C1368.66 676.637 1376.75 660.823 1386.86 646.037C1405.18 619.278 1430.79 599.578 1453.34 576.929C1471.35 558.837 1492.19 545.346 1515.24 534.625C1566.85 510.591 1617.21 484.056 1665.9 454.572C1690.52 439.696 1711.36 420.577 1727.71 396.856C1729.33 394.533 1735.26 391.719 1730.14 388.547C1726.95 386.581 1721.51 386.671 1718.55 391.451C1716.26 395.158 1713.92 398.866 1711.23 402.261C1684.77 435.721 1649.24 457.119 1611.1 474.362C1555.35 499.557 1499.97 523.769 1452.53 565.002C1410.21 601.811 1376.07 643.446 1348.09 691.022C1346.11 694.372 1339.46 700.448 1352 700.135L1352.09 700.179ZM1710.78 385.554C1706.78 386.581 1705.48 386.537 1704.89 387.117C1667.65 427.01 1618.56 448.184 1570.54 470.922C1509.44 499.825 1448.67 528.594 1405.54 583.853C1383.17 612.577 1355.14 636.298 1329.18 661.806C1321.72 669.132 1318.94 680.077 1309.23 685.616C1307.39 686.688 1303.75 690.798 1305.82 692.719C1311.12 697.678 1318.89 696.07 1325.49 697.767C1329.9 698.929 1332.37 697.052 1334.79 692.764C1363.23 642.552 1397.19 597.389 1442.24 559.641C1480.16 527.879 1520.45 501.791 1565.64 482.492C1596.45 469.314 1627.63 456.85 1655.7 438.044C1676.37 424.195 1695.28 408.649 1710.82 385.554H1710.78ZM1199.45 477.98C1206.01 486.557 1212.79 491.561 1224.2 491.739C1275.81 492.454 1326.57 484.771 1377.2 476.864C1414.17 471.101 1449.97 472.664 1483.61 489.729C1492.78 494.375 1499.16 495.894 1507.96 489.997C1514.2 485.798 1514.92 484.1 1508.32 480.169C1494.75 472.039 1480.07 467.125 1464.88 462.926C1425.94 452.16 1387.17 460.424 1348.76 464.802C1311.52 469.091 1274.6 475.389 1236.91 475.3C1224.74 475.3 1212.25 474.853 1199.36 478.025L1199.45 477.98ZM1200.75 466.991C1200.75 466.991 1200.75 467.259 1200.75 467.348C1208.34 466.634 1215.98 465.115 1223.57 465.383C1282.64 467.706 1340.14 453.455 1398.49 448.407C1439.91 444.834 1478.67 449.882 1513.85 471.503C1525.12 478.427 1532.8 477.489 1542.19 471.324C1543.94 470.163 1546.68 469.046 1546.95 467.572C1547.36 465.115 1544.17 464.668 1542.33 463.73C1524.54 454.259 1505.27 448.497 1486.26 442.287C1459.09 433.398 1431.28 429.109 1402.31 434.023C1332.95 445.816 1263.05 453.857 1192.75 457.655C1189.74 457.833 1184.13 454.84 1184.08 460.29C1184.08 463.73 1188.53 466.723 1193.02 466.991C1195.58 467.17 1198.14 466.991 1200.7 466.991H1200.75ZM1229.99 501.746C1242.71 515.416 1256.77 512.512 1269.88 512.78C1309.95 513.673 1349.93 515.728 1389.86 509.028C1410.98 505.498 1432.9 503.175 1453.65 510.948C1463.27 514.567 1469.87 512.244 1477.64 507.285C1483.97 503.22 1483.61 501.121 1477.33 498.351C1455.72 488.702 1432.9 482.448 1409.5 484.547C1350.51 489.818 1292.25 502.371 1229.99 501.791V501.746ZM635.695 387.073C604.655 386.358 585.069 392.299 570.964 408.515C556.545 425.044 539.34 437.239 520.833 448.318C518.497 449.703 512.882 449.792 514.858 453.768C516.341 456.761 520.653 459.441 524.966 459.129C526.987 458.995 529.008 457.565 530.895 456.493C549.357 446.085 567.416 434.693 581.88 419.326C599.264 400.876 620.781 396.543 643.825 399.626C708.78 408.292 773.87 416.556 836.22 438.133C843.497 440.634 847.046 434.246 848.977 430.628C851.493 425.937 844.755 426.429 841.925 425.535C803.338 413.34 764.167 403.959 723.694 399.76C691.082 396.364 658.784 390.512 635.695 387.117V387.073ZM788.065 479.008C762.011 476.685 739.192 472.441 716.552 467.393C686.14 460.648 655.819 457.163 624.599 463.105C600.477 467.706 584.935 487.138 562.968 495.045C560.004 496.117 560.543 497.949 562.25 500.004C565.708 504.114 569.302 505.141 574.693 503.041C590.28 497.011 606.002 491.159 621.949 486.111C664.803 472.441 707.253 481.331 748.805 491.695C765.74 495.939 775.353 490.176 788.065 479.052V479.008ZM892.775 673.734C909.216 667.882 925.567 669.624 941.244 666.988C965.232 662.923 988.006 655.641 1001.71 632.859C1006.11 625.577 1011.63 627.051 1017.2 631.652C1024.75 637.907 1032.21 644.295 1039.89 650.415C1061.5 667.658 1088.18 679.05 1100.98 706.434C1104.49 713.939 1113.11 706.478 1117.87 703.977C1122.32 701.654 1116.52 698.169 1114.5 696.516C1092.58 678.692 1069.22 662.655 1049.28 642.374C1037.6 630.491 1022.24 622.539 1012.17 608.825C1008.62 604 1006.92 608.11 1004.9 610.254C987.557 628.615 966.22 640.587 942.771 649.387C926.33 655.507 908.901 656.937 892.056 661.091C889.181 661.806 883.207 661.404 884.24 665.603C885.093 668.998 890.169 671.366 892.82 673.734H892.775ZM438.718 707.908C451.97 735.604 460.639 766.92 489.389 784.833C490.556 785.548 491.096 787.156 492.039 788.273C507.447 806.722 524.741 823.296 542.934 838.976C550.256 845.319 565.484 843.711 571.818 836.429C574.288 833.615 571.818 832.766 570.38 831.471C525.909 790.774 485.75 745.477 438.718 707.908ZM641.13 421.604C665.612 422.051 683.939 424.731 702.087 429.109C739.596 438.133 777.194 446.889 814.613 456.225C821.89 458.057 826.337 453.411 827.775 449.435C830.021 443.27 822.294 444.298 819.105 443.404C760.978 427.546 701.728 417.45 642.029 409.989C624.599 407.801 606.856 409.319 593.02 423.123C577.208 438.892 559.195 451.803 539.879 463.015C537.813 464.221 533.096 464.534 535.297 468.733C537.184 472.352 540.643 473.781 544.506 471.235C550.57 467.259 556.635 463.194 562.519 458.95C587.989 440.545 610.764 416.243 641.085 421.604H641.13ZM641.984 432.549C624.285 430.494 606.362 437.552 590.1 451.088C578.376 460.826 565.439 469.091 553.131 478.159C551.199 479.589 546.348 479.499 548.773 483.877C550.57 487.138 553.715 487.764 557.308 486.334C565.125 483.162 572.986 479.901 579.409 474.496C611.303 447.693 649.081 446.442 687.263 451.534C724.008 456.448 760.304 464.445 796.78 471.28C800.778 472.039 804.371 470.297 805.045 467.706C806.348 462.703 800.778 463.953 798.397 463.373C767.267 455.778 736.002 448.72 704.872 441.126C685.332 436.346 665.702 432.415 641.894 432.594L641.984 432.549ZM1264.31 521.67C1264.76 525.422 1267.19 526.003 1268.94 527.12C1290.91 541.325 1315.93 540.968 1340.54 541.102C1366.01 541.281 1391.35 534.089 1416.77 537.26C1429.89 538.913 1438.78 534.669 1447.41 526.539C1448.89 525.154 1451.9 524.439 1450.87 521.893C1450.37 520.687 1447.86 519.972 1446.15 519.659C1435.73 517.783 1425.13 516.264 1414.62 517.56C1364.71 523.68 1314.76 527.298 1264.36 521.714L1264.31 521.67ZM747.457 501.88C727.557 496.162 706.489 494.777 685.781 491.159C651.821 485.262 621.095 495.939 590.594 508.313C589.382 508.804 587.675 509.385 587.225 510.368C586.327 512.333 588.483 512.601 589.696 513.003C599.489 516.443 608.742 521.759 620.017 517.158C645.667 506.66 672.395 506.883 699.437 510.189C715.923 512.199 734.116 524.752 747.367 501.88H747.457ZM902.972 681.462C913.124 691.826 913.169 692.406 932.799 691.334C959.751 689.905 985.446 684.276 1005.39 664.04C1011.95 657.384 1019.14 658.768 1024.75 664.263C1041.33 680.479 1066.48 687.761 1075.47 711.973C1075.83 712.911 1076.95 713.536 1077.71 714.341C1081.35 717.959 1085.84 716.127 1088.85 714.519C1093.34 712.107 1088.63 709.025 1087.68 706.389C1085.66 700.85 1081.89 696.427 1077.58 692.406C1057.9 673.957 1032.97 662.253 1013.79 643.178C1010.6 640.006 1009.25 642.15 1007.14 644.697C990.881 664.084 969.005 672.438 944.703 676.905C931.092 679.407 916.987 676.101 902.972 681.506V681.462ZM929.969 702.592C939.492 707.997 945.601 717.11 954.585 714.609C971.61 709.873 989.489 706.925 1004.85 697.32C1013.07 692.183 1020.44 692.943 1028.26 697.901C1036.34 703.038 1042.81 709.918 1049.46 716.619C1053.81 720.997 1059.74 720.684 1063.43 718.093C1066.66 715.815 1061.77 711.928 1060.33 708.891C1056.51 700.76 1050.27 694.908 1042.27 690.575C1034.59 686.42 1026.86 682.177 1021.11 675.342C1016.8 670.16 1013.07 670.517 1008.58 675.297C1002.02 682.266 993.711 686.644 984.907 690.441C968.151 697.722 950.228 699.733 929.969 702.502V702.592ZM1358.47 1037.05C1411.56 1036.38 1464.66 1028.43 1517.8 1036.56C1464.66 1004.04 1411.52 1015.39 1358.47 1037.05ZM461.358 772.638C464.997 788.809 467.917 802.389 471.196 815.836C471.645 817.712 473.352 819.722 475.014 820.75C489.838 830.131 502.416 842.237 515.218 854.03C521.956 860.24 528.38 859.793 535.881 855.236C540.778 852.243 541.047 851.171 536.465 847.285C519.89 833.168 503.898 818.337 489.928 801.585C481.842 791.847 473.711 782.331 461.313 772.593L461.358 772.638ZM1308.92 549.366C1319.88 557.943 1327.47 563.751 1339.46 563.125C1360.04 562.053 1380.97 560.132 1400.78 568.754C1403.43 569.916 1404.82 568.441 1406.22 566.655C1410.8 560.713 1421.71 553.744 1419.47 549.768C1415.92 543.47 1405.09 546.641 1397.32 547.133C1369.07 549.009 1340.95 553.878 1308.92 549.366ZM631.427 523.412C639.378 527.79 644.364 535.161 650.294 533.463C667.139 528.728 683.131 530.515 699.572 534.759C706.849 536.635 711.97 530.604 715.114 525.646C716.192 523.993 708.017 522.116 703.659 521.312C680.615 517.068 657.661 516.845 631.427 523.412ZM1340.27 572.06C1346.43 577.733 1351.05 581.709 1355.37 586.042C1367.88 598.55 1379.77 597.851 1391.03 583.943C1391.48 583.362 1392.02 582.87 1392.52 582.334C1396.15 578.448 1395.66 577.018 1390 575.678C1374.32 572.06 1358.56 571.122 1340.23 572.015L1340.27 572.06ZM1038.99 720.952C1030.28 713.536 1024.26 701.966 1014.96 705.183C999.191 710.588 983.514 716.887 967.792 721.756C990.971 737.838 1013.25 722.471 1038.99 720.952ZM661.254 541.102C660.985 541.861 660.76 542.666 660.491 543.425C665.252 546.284 669.879 549.366 674.776 551.868C680.57 554.816 684.119 550.081 688.117 547.267C689.15 546.552 690.453 544.274 690.183 543.961C687.219 540.7 683.086 541.102 679.178 541.057C673.203 541.057 667.229 541.057 661.254 541.057V541.102Z" fill="black"/>
        <path d="M198.304 1190.86C227.637 1173.21 290.526 1152.48 322.284 1146.81C395.684 1133.72 464.188 1105.58 533.77 1080.38C584.8 1061.89 636.593 1045.18 691.756 1042.37C728.5 1040.49 764.122 1043.53 800.149 1052.24C884.42 1072.61 968.511 1093.79 1054.53 1106.52C1098.47 1113.04 1142.04 1121.88 1186.29 1126.57C1230.26 1131.27 1274.37 1134.17 1318.53 1131.49C1355.19 1129.25 1391.39 1131.49 1427.69 1135.73C1445.39 1137.83 1463.45 1137.07 1481.23 1138.77C1547.31 1145.11 1613.61 1147.79 1679.87 1151.41C1699.55 1152.48 1719.31 1151.95 1739.03 1151.64C1745.64 1151.55 1745.99 1152.66 1745.99 1160.12C1745.99 1170.53 1745.99 1176.61 1745.99 1190.86C1665.95 1190.86 202.751 1191.13 198.304 1190.86Z" fill="black"/>
        <path d="M55.6357 1190.99C72.7505 1179.47 99.0739 1162.22 115.829 1156.59C157.695 1142.48 197.899 1124.47 238.642 1107.59C266.493 1096.02 296.589 1093.47 326.102 1089.18C364.734 1083.6 403.051 1076.68 441.054 1067.52C471.69 1060.1 499.855 1047.73 525.549 1029.9C580.487 991.888 643.466 977.548 708.196 972.992C754.779 969.686 801.137 978.755 845.877 993.541C922.332 1018.83 1001.48 1031.51 1080.77 1043.89C1140.78 1053.27 1201.29 1055.28 1261.71 1058.85C1291.26 1060.59 1319.97 1068.41 1349.71 1069.22C1384.03 1070.15 1418.25 1066.54 1452.62 1068.72C1480.29 1070.51 1507.6 1075.38 1535.45 1075.78C1577.95 1076.45 1620.08 1072.79 1662.17 1068.41C1688.77 1065.64 1714.55 1068.63 1740.2 1075.65C1745.9 1077.21 1746.62 1079 1745.23 1084.58C1743.39 1090.43 1740.74 1087.26 1738.18 1086.41C1700.89 1074 1663.16 1078.51 1625.38 1082.66C1575.84 1088.07 1526.33 1088.02 1476.83 1081.81C1448.89 1078.28 1420.86 1078.33 1392.74 1079.71C1361.03 1081.28 1329.27 1080.43 1297.91 1074.08C1274.6 1069.39 1250.79 1068.23 1227.16 1067.47C1162.12 1065.33 1097.75 1057.78 1033.51 1047.55C963.12 1036.34 894.481 1019.09 826.023 999.348C720.774 968.971 619.927 981.614 527.526 1042.14C484.043 1070.6 435.124 1081.05 385.712 1090.79C356.019 1096.64 326.012 1101.07 295.96 1104.6C255.262 1109.42 219.416 1127.74 182.626 1143.33C151.137 1156.64 117.626 1164.81 87.2149 1180.72C76.8832 1187.55 64.6648 1191.08 55.6357 1190.99Z" fill="black"/>
        <path d="M113.988 1190.86C151.138 1171.11 210.028 1148.06 249.154 1138.64C334.818 1117.91 421.649 1101.16 504.662 1070.78C541.991 1057.11 576.4 1036.29 614.942 1025.44C663.591 1011.77 712.869 999.616 763.674 1007.39C800.688 1013.06 836.804 1024.19 873.684 1031.11C940.436 1043.62 1005.48 1063.23 1072.19 1075.69C1118.1 1084.27 1164.41 1089.76 1211.08 1092.58C1263.5 1095.75 1315.7 1102.99 1368.35 1101.69C1385.15 1101.29 1401.9 1099.55 1418.66 1099.73C1485.05 1100.35 1551.18 1106.11 1617.34 1110.72C1655.53 1113.35 1694.07 1111.12 1731.8 1119.38C1734.99 1120.1 1738.13 1121.17 1741.37 1121.62C1747.34 1122.42 1746.27 1126.26 1745.05 1130.91C1743.39 1137.34 1741.14 1132.74 1738.67 1132.07C1707.99 1124.07 1676.46 1125.15 1645.24 1122.51C1588.19 1117.68 1530.87 1117.91 1473.91 1111.52C1444.26 1108.21 1414.08 1109.87 1384.16 1111.7C1342.88 1114.25 1301.73 1110.89 1260.67 1107.32C1215.62 1103.39 1170.38 1101.65 1125.55 1095.26C1059.03 1085.79 993.936 1069.66 928.802 1053.58C886.666 1043.17 843.632 1036.43 801.587 1025.97C774.005 1019.09 746.469 1013.73 718.304 1016.5C663.501 1021.82 610.27 1034.01 560.498 1058.54C493.881 1091.33 422.278 1108.57 350.63 1126.04C300.094 1138.37 248.795 1147.84 199.517 1164.86C189.23 1168.39 178.988 1172.45 169.375 1177.5C164.254 1180.18 153.653 1183.89 142.737 1186.75C131.822 1189.61 129.261 1191.13 114.078 1190.99L113.988 1190.86Z" fill="black"/>
    </g>
    <defs>
        <filter id="filter0_d_127_340" x="-4" y="0" width="1739" height="1331" filterUnits="userSpaceOnUse" color-interpolation-filters="sRGB">
            <feFlood flood-opacity="0" result="BackgroundImageFix"/>
            <feColorMatrix in="SourceAlpha" type="matrix" values="0 0 0 0 0 0 0 0 0 0 0 0 0 0 0 0 0 0 127 0" result="hardAlpha"/>
            <feOffset dy="4"/>
            <feGaussianBlur stdDeviation="2"/>
            <feComposite in2="hardAlpha" operator="out"/>
            <feColorMatrix type="matrix" values="0 0 0 0 0 0 0 0 0 0 0 0 0 0 0 0 0 0 0.25 0"/>
            <feBlend mode="normal" in2="BackgroundImageFix" result="effect1_dropShadow_127_340"/>
            <feBlend mode="normal" in="SourceGraphic" in2="effect1_dropShadow_127_340" result="shape"/>
        </filter>
        <clipPath id="clip0_127_340">
            <rect width="1731" height="1323" fill="white"/>
        </clipPath>
    </defs>
</svg>
